Introduction to Machine Learning Spring 2025 - MIDTERM
…
SOLUTION

post_df_focus_from_vague <- 
  a <- 0.5
  b <- 0.5

post_df_focus_from_vague <- df_focus %>%
  mutate(
    anew = a + num_events,
    bnew = b + (num_trials - num_events)
  )
post_df_focus_from_vague

## # A tibble: 23 × 5
##    player_id num_events num_trials  anew  bnew
##        <dbl>      <dbl>      <dbl> <dbl> <dbl>
##  1        28         63         93  63.5  30.5
##  2       182         18         26  18.5   8.5
##  3       331         66        123  66.5  57.5
##  4       425         43         56  43.5  13.5
##  5       573         28         32  28.5   4.5
##  6       714          2          2   2.5   0.5
##  7       813         12         15  12.5   3.5
##  8       613          6          8   6.5   2.5
##  9       673         22         28  22.5   6.5
## 10       240         67        100  67.5  33.5
## # ℹ 13 more rows
…
SOLUTION

summary_post_df_focus_from_vague <- post_df_focus_from_vague %>%
  mutate(
    post_avg = anew / (anew + bnew),
    post_q05 = qbeta(0.05, anew, bnew),
    post_q95 = qbeta(0.95, anew, bnew)
  )
summary_post_df_focus_from_vague

## # A tibble: 23 × 8
##    player_id num_events num_trials  anew  bnew post_avg post_q05 post_q95
##        <dbl>      <dbl>      <dbl> <dbl> <dbl>    <dbl>    <dbl>    <dbl>
##  1        28         63         93  63.5  30.5    0.676    0.594    0.752
##  2       182         18         26  18.5   8.5    0.685    0.533    0.822
##  3       331         66        123  66.5  57.5    0.536    0.463    0.609
##  4       425         43         56  43.5  13.5    0.763    0.666    0.850
##  5       573         28         32  28.5   4.5    0.864    0.756    0.946
##  6       714          2          2   2.5   0.5    0.833    0.431    0.999
##  7       813         12         15  12.5   3.5    0.781    0.598    0.924
##  8       613          6          8   6.5   2.5    0.722    0.462    0.924
##  9       673         22         28  22.5   6.5    0.776    0.640    0.889
## 10       240         67        100  67.5  33.5    0.668    0.590    0.743
## # ℹ 13 more rows
…
SOLUTION

#Add as many code chunks as you feel are necessary. 
#Same thing, just change the dataset
a <- 0.5
b <- 0.5

post_df_all_from_vague <- df_all %>%
  mutate(
    anew = a + num_events,
    bnew = b + (num_trials - num_events)
  )
post_df_all_from_vague

## # A tibble: 842 × 5
##    player_id num_events num_trials  anew  bnew
##        <dbl>      <dbl>      <dbl> <dbl> <dbl>
##  1         1          0          1   0.5   1.5
##  2         2          0          1   0.5   1.5
##  3         3         53         68  53.5  15.5
##  4         4          9         11   9.5   2.5
##  5         5         10         13  10.5   3.5
##  6         6         19         32  19.5  13.5
##  7         7          2          2   2.5   0.5
##  8         8          0          1   0.5   1.5
##  9         9         89        178  89.5  89.5
## 10        10        143        217 144.   74.5
## # ℹ 832 more rows
…
SOLUTION

#Add as many code chunks as you feel are necessary. 
#Take from previous step
summary_post_df_all_from_vague <- post_df_all_from_vague %>%
  mutate(
    post_avg = anew / (anew + bnew),
    post_q05 = qbeta(0.05, anew, bnew),
    post_q95 = qbeta(0.95, anew, bnew)
  )
summary_post_df_all_from_vague

## # A tibble: 842 × 8
##    player_id num_events num_trials  anew  bnew post_avg post_q05 post_q95
##        <dbl>      <dbl>      <dbl> <dbl> <dbl>    <dbl>    <dbl>    <dbl>
##  1         1          0          1   0.5   1.5    0.25   0.00154    0.771
##  2         2          0          1   0.5   1.5    0.25   0.00154    0.771
##  3         3         53         68  53.5  15.5    0.775  0.689      0.853
##  4         4          9         11   9.5   2.5    0.792  0.581      0.946
##  5         5         10         13  10.5   3.5    0.75   0.547      0.912
##  6         6         19         32  19.5  13.5    0.591  0.449      0.727
##  7         7          2          2   2.5   0.5    0.833  0.431      0.999
##  8         8          0          1   0.5   1.5    0.25   0.00154    0.771
##  9         9         89        178  89.5  89.5    0.5    0.439      0.561
## 10        10        143        217 144.   74.5    0.658  0.605      0.710
## # ℹ 832 more rows
…
# Pooled posterior hyperpara
anew_pooled <- a + totals$M
bnew_pooled <- b + (totals$N - totals$M)

# Attach the same pooled parameters to each focused player
post_df_focus_pooled <- df_focus %>%
  mutate(
    anew = anew_pooled,
    bnew = bnew_pooled
  )
post_df_focus_pooled

## # A tibble: 23 × 5
##    player_id num_events num_trials   anew   bnew
##        <dbl>      <dbl>      <dbl>  <dbl>  <dbl>
##  1        28         63         93 35534. 17314.
##  2       182         18         26 35534. 17314.
##  3       331         66        123 35534. 17314.
##  4       425         43         56 35534. 17314.
##  5       573         28         32 35534. 17314.
##  6       714          2          2 35534. 17314.
##  7       813         12         15 35534. 17314.
##  8       613          6          8 35534. 17314.
##  9       673         22         28 35534. 17314.
## 10       240         67        100 35534. 17314.
## # ℹ 13 more rows
…
SOLUTION

summary_post_df_focus_pooled <- post_df_focus_pooled %>%
  mutate(
    post_avg = anew / (anew + bnew),
    post_q05 = qbeta(0.05, anew, bnew),
    post_q95 = qbeta(0.95, anew, bnew)
  )
summary_post_df_focus_pooled 

## # A tibble: 23 × 8
##    player_id num_events num_trials   anew   bnew post_avg post_q05 post_q95
##        <dbl>      <dbl>      <dbl>  <dbl>  <dbl>    <dbl>    <dbl>    <dbl>
##  1        28         63         93 35534. 17314.    0.672    0.669    0.676
##  2       182         18         26 35534. 17314.    0.672    0.669    0.676
##  3       331         66        123 35534. 17314.    0.672    0.669    0.676
##  4       425         43         56 35534. 17314.    0.672    0.669    0.676
##  5       573         28         32 35534. 17314.    0.672    0.669    0.676
##  6       714          2          2 35534. 17314.    0.672    0.669    0.676
##  7       813         12         15 35534. 17314.    0.672    0.669    0.676
##  8       613          6          8 35534. 17314.    0.672    0.669    0.676
##  9       673         22         28 35534. 17314.    0.672    0.669    0.676
## 10       240         67        100 35534. 17314.    0.672    0.669    0.676
## # ℹ 13 more rows
…
SOLUTION

ab_emp_bayes <- c(a = 16, b = 9)

a_emp <- ab_emp_bayes["a"]
b_emp <- ab_emp_bayes["b"]

post_df_focus_empbayes <- df_focus %>%
  mutate(
    anew = a_emp + num_events,
    bnew = b_emp + (num_trials - num_events)
  )
post_df_focus_empbayes

## # A tibble: 23 × 5
##    player_id num_events num_trials  anew  bnew
##        <dbl>      <dbl>      <dbl> <dbl> <dbl>
##  1        28         63         93    79    39
##  2       182         18         26    34    17
##  3       331         66        123    82    66
##  4       425         43         56    59    22
##  5       573         28         32    44    13
##  6       714          2          2    18     9
##  7       813         12         15    28    12
##  8       613          6          8    22    11
##  9       673         22         28    38    15
## 10       240         67        100    83    42
## # ℹ 13 more rows
…
SOLUTION

summary_post_df_focus_empbayes <- post_df_focus_empbayes %>%
  mutate(
    post_avg = anew / (anew + bnew),
    post_q05 = qbeta(0.05, anew, bnew),
    post_q95 = qbeta(0.95, anew, bnew)
  )
summary_post_df_focus_empbayes

## # A tibble: 23 × 8
##    player_id num_events num_trials  anew  bnew post_avg post_q05 post_q95
##        <dbl>      <dbl>      <dbl> <dbl> <dbl>    <dbl>    <dbl>    <dbl>
##  1        28         63         93    79    39    0.669    0.597    0.739
##  2       182         18         26    34    17    0.667    0.555    0.770
##  3       331         66        123    82    66    0.554    0.487    0.621
##  4       425         43         56    59    22    0.728    0.644    0.806
##  5       573         28         32    44    13    0.772    0.676    0.857
##  6       714          2          2    18     9    0.667    0.513    0.806
##  7       813         12         15    28    12    0.7      0.577    0.812
##  8       613          6          8    22    11    0.667    0.528    0.794
##  9       673         22         28    38    15    0.717    0.612    0.813
## 10       240         67        100    83    42    0.664    0.593    0.732
## # ℹ 13 more rows
…
SOLUTION

Add as many code chunks as you feel are necessary.

post_df_all_empbayes <- df_all %>%
  mutate(
    anew = a_emp + num_events,
    bnew = b_emp + (num_trials - num_events)
  )
post_df_all_empbayes

## # A tibble: 842 × 5
##    player_id num_events num_trials  anew  bnew
##        <dbl>      <dbl>      <dbl> <dbl> <dbl>
##  1         1          0          1    16    10
##  2         2          0          1    16    10
##  3         3         53         68    69    24
##  4         4          9         11    25    11
##  5         5         10         13    26    12
##  6         6         19         32    35    22
##  7         7          2          2    18     9
##  8         8          0          1    16    10
##  9         9         89        178   105    98
## 10        10        143        217   159    83
## # ℹ 832 more rows
…
SOLUTION

Add as many code chunks as you feel are necessary.

summary_post_df_all_empbayes <- post_df_all_empbayes %>%
  mutate(
    post_avg = anew / (anew + bnew),
    post_q05 = qbeta(0.05, anew, bnew),
    post_q95 = qbeta(0.95, anew, bnew)
  )
summary_post_df_all_empbayes

## # A tibble: 842 × 8
##    player_id num_events num_trials  anew  bnew post_avg post_q05 post_q95
##        <dbl>      <dbl>      <dbl> <dbl> <dbl>    <dbl>    <dbl>    <dbl>
##  1         1          0          1    16    10    0.615    0.456    0.764
##  2         2          0          1    16    10    0.615    0.456    0.764
##  3         3         53         68    69    24    0.742    0.665    0.813
##  4         4          9         11    25    11    0.694    0.564    0.813
##  5         5         10         13    26    12    0.684    0.556    0.801
##  6         6         19         32    35    22    0.614    0.507    0.717
##  7         7          2          2    18     9    0.667    0.513    0.806
##  8         8          0          1    16    10    0.615    0.456    0.764
##  9         9         89        178   105    98    0.517    0.460    0.575
## 10        10        143        217   159    83    0.657    0.606    0.706
## # ℹ 832 more rows
…
Calculate the probability that each player has a catch rate
(event probability) of greater than 0.67. Add a column to the
summary_post_df_all_empbayes object named
prob_grt_67. Assign the result to a new variable
post_player_eval.

SOLUTION

Add as many code chunks as you feel are necessary.

post_player_eval <- summary_post_df_all_empbayes %>%
  mutate(prob_grt_67 = 1 - pbeta(0.67, shape1 = anew, shape2 = bnew))
post_player_eval

## # A tibble: 842 × 9
##    player_id num_events num_trials  anew  bnew post_avg post_q05 post_q95
##        <dbl>      <dbl>      <dbl> <dbl> <dbl>    <dbl>    <dbl>    <dbl>
##  1         1          0          1    16    10    0.615    0.456    0.764
##  2         2          0          1    16    10    0.615    0.456    0.764
##  3         3         53         68    69    24    0.742    0.665    0.813
##  4         4          9         11    25    11    0.694    0.564    0.813
##  5         5         10         13    26    12    0.684    0.556    0.801
##  6         6         19         32    35    22    0.614    0.507    0.717
##  7         7          2          2    18     9    0.667    0.513    0.806
##  8         8          0          1    16    10    0.615    0.456    0.764
##  9         9         89        178   105    98    0.517    0.460    0.575
## 10        10        143        217   159    83    0.657    0.606    0.706
## # ℹ 832 more rows
## # ℹ 1 more variable: prob_grt_67 <dbl>
…
